module codeberg.org/FiskFan1999/peertube-multipart-upload

go 1.18

require (
	github.com/cheggaaa/pb/v3 v3.0.8
	golang.org/x/crypto v0.0.0-20220622213112-05595931fe9d
	golang.org/x/term v0.0.0-20220526004731-065cf7ba2467
)

require (
	github.com/VividCortex/ewma v1.2.0 // indirect
	github.com/fatih/color v1.13.0 // indirect
	github.com/google/go-cmp v0.5.8 // indirect
	github.com/mattn/go-colorable v0.1.12 // indirect
	github.com/mattn/go-isatty v0.0.14 // indirect
	github.com/mattn/go-runewidth v0.0.13 // indirect
	github.com/rivo/uniseg v0.2.0 // indirect
	golang.org/x/sys v0.0.0-20220704084225-05e143d24a9e // indirect
)
